^C:\USERS\YULYAS\ONEDRIVE - TECHNION\SPURS\CLONE\SP_ROOT\SPURSPR\BSPLINEFAST.CPP|C:\USERS\YULYAS\ONEDRIVE - TECHNION\SPURS\CLONE\SP_ROOT\SPURSPR\BSPLINEPHI.CPP|C:\USERS\YULYAS\ONEDRIVE - TECHNION\SPURS\CLONE\SP_ROOT\SPURSPR\CONSTRUCTGRIDARMSPIRAL.CPP|C:\USERS\YULYAS\ONEDRIVE - TECHNION\SPURS\CLONE\SP_ROOT\SPURSPR\CONSTRUCTGRIDCARTESIAN.CPP|C:\USERS\YULYAS\ONEDRIVE - TECHNION\SPURS\CLONE\SP_ROOT\SPURSPR\CTAGCALCULATION.CPP|C:\USERS\YULYAS\ONEDRIVE - TECHNION\SPURS\CLONE\SP_ROOT\SPURSPR\FACTORPSI.CPP|C:\USERS\YULYAS\ONEDRIVE - TECHNION\SPURS\CLONE\SP_ROOT\SPURSPR\IFFTANDFILTERINIMAGESPACE.CPP|C:\USERS\YULYAS\ONEDRIVE - TECHNION\SPURS\CLONE\SP_ROOT\SPURSPR\INTERPOLATEWITHSINC.CPP|C:\USERS\YULYAS\ONEDRIVE - TECHNION\SPURS\CLONE\SP_ROOT\SPURSPR\RETURNFILTER.CPP|C:\USERS\YULYAS\ONEDRIVE - TECHNION\SPURS\CLONE\SP_ROOT\SPURSPR\RETURNPSI.CPP|C:\USERS\YULYAS\ONEDRIVE - TECHNION\SPURS\CLONE\SP_ROOT\SPURSPR\SOURCE.CPP|C:\USERS\YULYAS\ONEDRIVE - TECHNION\SPURS\CLONE\SP_ROOT\SPURSPR\SPURSALG.CPP
C:\USERS\YULYAS\ONEDRIVE - TECHNION\SPURS\CLONE\SP_ROOT\SPURSPR\X64\DEBUG\VC140.PDB
C:\USERS\YULYAS\ONEDRIVE - TECHNION\SPURS\CLONE\SP_ROOT\SPURSPR\X64\DEBUG\VC140.IDB
C:\USERS\YULYAS\ONEDRIVE - TECHNION\SPURS\CLONE\SP_ROOT\SPURSPR\X64\DEBUG\BSPLINEFAST.OBJ
C:\USERS\YULYAS\ONEDRIVE - TECHNION\SPURS\CLONE\SP_ROOT\SPURSPR\X64\DEBUG\BSPLINEPHI.OBJ
C:\USERS\YULYAS\ONEDRIVE - TECHNION\SPURS\CLONE\SP_ROOT\SPURSPR\X64\DEBUG\CONSTRUCTGRIDARMSPIRAL.OBJ
C:\USERS\YULYAS\ONEDRIVE - TECHNION\SPURS\CLONE\SP_ROOT\SPURSPR\X64\DEBUG\CONSTRUCTGRIDCARTESIAN.OBJ
C:\USERS\YULYAS\ONEDRIVE - TECHNION\SPURS\CLONE\SP_ROOT\SPURSPR\X64\DEBUG\CTAGCALCULATION.OBJ
C:\USERS\YULYAS\ONEDRIVE - TECHNION\SPURS\CLONE\SP_ROOT\SPURSPR\X64\DEBUG\FACTORPSI.OBJ
C:\USERS\YULYAS\ONEDRIVE - TECHNION\SPURS\CLONE\SP_ROOT\SPURSPR\X64\DEBUG\IFFTANDFILTERINIMAGESPACE.OBJ
C:\USERS\YULYAS\ONEDRIVE - TECHNION\SPURS\CLONE\SP_ROOT\SPURSPR\X64\DEBUG\INTERPOLATEWITHSINC.OBJ
C:\USERS\YULYAS\ONEDRIVE - TECHNION\SPURS\CLONE\SP_ROOT\SPURSPR\X64\DEBUG\RETURNFILTER.OBJ
C:\USERS\YULYAS\ONEDRIVE - TECHNION\SPURS\CLONE\SP_ROOT\SPURSPR\X64\DEBUG\RETURNPSI.OBJ
C:\USERS\YULYAS\ONEDRIVE - TECHNION\SPURS\CLONE\SP_ROOT\SPURSPR\X64\DEBUG\SOURCE.OBJ
C:\USERS\YULYAS\ONEDRIVE - TECHNION\SPURS\CLONE\SP_ROOT\SPURSPR\X64\DEBUG\SPURSALG.OBJ
^C:\USERS\YULYAS\ONEDRIVE - TECHNION\SPURS\CLONE\SP_ROOT\SPURSPR\BSPLINEFAST.CPP
C:\USERS\YULYAS\ONEDRIVE - TECHNION\SPURS\CLONE\SP_ROOT\SPURSPR\X64\DEBUG\VC140.PDB
^C:\USERS\YULYAS\ONEDRIVE - TECHNION\SPURS\CLONE\SP_ROOT\SPURSPR\BSPLINEPHI.CPP
C:\USERS\YULYAS\ONEDRIVE - TECHNION\SPURS\CLONE\SP_ROOT\SPURSPR\X64\DEBUG\VC140.PDB
^C:\USERS\YULYAS\ONEDRIVE - TECHNION\SPURS\CLONE\SP_ROOT\SPURSPR\CONSTRUCTGRIDARMSPIRAL.CPP
C:\USERS\YULYAS\ONEDRIVE - TECHNION\SPURS\CLONE\SP_ROOT\SPURSPR\X64\DEBUG\VC140.PDB
^C:\USERS\YULYAS\ONEDRIVE - TECHNION\SPURS\CLONE\SP_ROOT\SPURSPR\CONSTRUCTGRIDCARTESIAN.CPP
C:\USERS\YULYAS\ONEDRIVE - TECHNION\SPURS\CLONE\SP_ROOT\SPURSPR\X64\DEBUG\VC140.PDB
^C:\USERS\YULYAS\ONEDRIVE - TECHNION\SPURS\CLONE\SP_ROOT\SPURSPR\CTAGCALCULATION.CPP
C:\USERS\YULYAS\ONEDRIVE - TECHNION\SPURS\CLONE\SP_ROOT\SPURSPR\X64\DEBUG\VC140.PDB
^C:\USERS\YULYAS\ONEDRIVE - TECHNION\SPURS\CLONE\SP_ROOT\SPURSPR\FACTORPSI.CPP
C:\USERS\YULYAS\ONEDRIVE - TECHNION\SPURS\CLONE\SP_ROOT\SPURSPR\X64\DEBUG\VC140.PDB
^C:\USERS\YULYAS\ONEDRIVE - TECHNION\SPURS\CLONE\SP_ROOT\SPURSPR\IFFTANDFILTERINIMAGESPACE.CPP
C:\USERS\YULYAS\ONEDRIVE - TECHNION\SPURS\CLONE\SP_ROOT\SPURSPR\X64\DEBUG\VC140.PDB
C:\USERS\YULYAS\ONEDRIVE - TECHNION\SPURS\CLONE\SP_ROOT\SPURSPR\X64\DEBUG\VC140.IDB
C:\USERS\YULYAS\ONEDRIVE - TECHNION\SPURS\CLONE\SP_ROOT\SPURSPR\X64\DEBUG\IFFTANDFILTERINIMAGESPACE.OBJ
^C:\USERS\YULYAS\ONEDRIVE - TECHNION\SPURS\CLONE\SP_ROOT\SPURSPR\INTERPOLATEWITHSINC.CPP
C:\USERS\YULYAS\ONEDRIVE - TECHNION\SPURS\CLONE\SP_ROOT\SPURSPR\X64\DEBUG\VC140.PDB
C:\USERS\YULYAS\ONEDRIVE - TECHNION\SPURS\CLONE\SP_ROOT\SPURSPR\X64\DEBUG\VC140.IDB
C:\USERS\YULYAS\ONEDRIVE - TECHNION\SPURS\CLONE\SP_ROOT\SPURSPR\X64\DEBUG\INTERPOLATEWITHSINC.OBJ
^C:\USERS\YULYAS\ONEDRIVE - TECHNION\SPURS\CLONE\SP_ROOT\SPURSPR\RETURNFILTER.CPP
C:\USERS\YULYAS\ONEDRIVE - TECHNION\SPURS\CLONE\SP_ROOT\SPURSPR\X64\DEBUG\VC140.PDB
^C:\USERS\YULYAS\ONEDRIVE - TECHNION\SPURS\CLONE\SP_ROOT\SPURSPR\RETURNPSI.CPP
C:\USERS\YULYAS\ONEDRIVE - TECHNION\SPURS\CLONE\SP_ROOT\SPURSPR\X64\DEBUG\VC140.PDB
^C:\USERS\YULYAS\ONEDRIVE - TECHNION\SPURS\CLONE\SP_ROOT\SPURSPR\SOURCE.CPP
C:\USERS\YULYAS\ONEDRIVE - TECHNION\SPURS\CLONE\SP_ROOT\SPURSPR\X64\DEBUG\VC140.PDB
^C:\USERS\YULYAS\ONEDRIVE - TECHNION\SPURS\CLONE\SP_ROOT\SPURSPR\SPURSALG.CPP
C:\USERS\YULYAS\ONEDRIVE - TECHNION\SPURS\CLONE\SP_ROOT\SPURSPR\X64\DEBUG\VC140.PDB
C:\USERS\YULYAS\ONEDRIVE - TECHNION\SPURS\CLONE\SP_ROOT\SPURSPR\X64\DEBUG\VC140.IDB
C:\USERS\YULYAS\ONEDRIVE - TECHNION\SPURS\CLONE\SP_ROOT\SPURSPR\X64\DEBUG\SPURSALG.OBJ
^C:\USERS\YULYAS\ONEDRIVE - TECHNION\SPURS\CLONE\SP_ROOT\SPURSPR\CONSTRUCTGRIDCARTESIAN.CPP|C:\USERS\YULYAS\ONEDRIVE - TECHNION\SPURS\CLONE\SP_ROOT\SPURSPR\CTAGCALCULATION.CPP|C:\USERS\YULYAS\ONEDRIVE - TECHNION\SPURS\CLONE\SP_ROOT\SPURSPR\FACTORPSI.CPP|C:\USERS\YULYAS\ONEDRIVE - TECHNION\SPURS\CLONE\SP_ROOT\SPURSPR\IFFTANDFILTERINIMAGESPACE.CPP|C:\USERS\YULYAS\ONEDRIVE - TECHNION\SPURS\CLONE\SP_ROOT\SPURSPR\INTERPOLATEWITHSINC.CPP|C:\USERS\YULYAS\ONEDRIVE - TECHNION\SPURS\CLONE\SP_ROOT\SPURSPR\RETURNPSI.CPP|C:\USERS\YULYAS\ONEDRIVE - TECHNION\SPURS\CLONE\SP_ROOT\SPURSPR\SPURSALG.CPP
C:\USERS\YULYAS\ONEDRIVE - TECHNION\SPURS\CLONE\SP_ROOT\SPURSPR\X64\DEBUG\VC140.PDB
C:\USERS\YULYAS\ONEDRIVE - TECHNION\SPURS\CLONE\SP_ROOT\SPURSPR\X64\DEBUG\VC140.IDB
C:\USERS\YULYAS\ONEDRIVE - TECHNION\SPURS\CLONE\SP_ROOT\SPURSPR\X64\DEBUG\CTAGCALCULATION.OBJ
C:\USERS\YULYAS\ONEDRIVE - TECHNION\SPURS\CLONE\SP_ROOT\SPURSPR\X64\DEBUG\CONSTRUCTGRIDCARTESIAN.OBJ
C:\USERS\YULYAS\ONEDRIVE - TECHNION\SPURS\CLONE\SP_ROOT\SPURSPR\X64\DEBUG\FACTORPSI.OBJ
C:\USERS\YULYAS\ONEDRIVE - TECHNION\SPURS\CLONE\SP_ROOT\SPURSPR\X64\DEBUG\IFFTANDFILTERINIMAGESPACE.OBJ
C:\USERS\YULYAS\ONEDRIVE - TECHNION\SPURS\CLONE\SP_ROOT\SPURSPR\X64\DEBUG\INTERPOLATEWITHSINC.OBJ
C:\USERS\YULYAS\ONEDRIVE - TECHNION\SPURS\CLONE\SP_ROOT\SPURSPR\X64\DEBUG\RETURNPSI.OBJ
C:\USERS\YULYAS\ONEDRIVE - TECHNION\SPURS\CLONE\SP_ROOT\SPURSPR\X64\DEBUG\SPURSALG.OBJ
^C:\USERS\YULYAS\ONEDRIVE - TECHNION\SPURS\CLONE\SP_ROOT\SPURSPR\CTAGCALCULATION.CPP|C:\USERS\YULYAS\ONEDRIVE - TECHNION\SPURS\CLONE\SP_ROOT\SPURSPR\IFFTANDFILTERINIMAGESPACE.CPP|C:\USERS\YULYAS\ONEDRIVE - TECHNION\SPURS\CLONE\SP_ROOT\SPURSPR\INTERPOLATEWITHSINC.CPP|C:\USERS\YULYAS\ONEDRIVE - TECHNION\SPURS\CLONE\SP_ROOT\SPURSPR\SOURCE.CPP|C:\USERS\YULYAS\ONEDRIVE - TECHNION\SPURS\CLONE\SP_ROOT\SPURSPR\SPURSALG.CPP
C:\USERS\YULYAS\ONEDRIVE - TECHNION\SPURS\CLONE\SP_ROOT\SPURSPR\X64\DEBUG\VC140.PDB
C:\USERS\YULYAS\ONEDRIVE - TECHNION\SPURS\CLONE\SP_ROOT\SPURSPR\X64\DEBUG\VC140.IDB
C:\USERS\YULYAS\ONEDRIVE - TECHNION\SPURS\CLONE\SP_ROOT\SPURSPR\X64\DEBUG\CTAGCALCULATION.OBJ
C:\USERS\YULYAS\ONEDRIVE - TECHNION\SPURS\CLONE\SP_ROOT\SPURSPR\X64\DEBUG\IFFTANDFILTERINIMAGESPACE.OBJ
C:\USERS\YULYAS\ONEDRIVE - TECHNION\SPURS\CLONE\SP_ROOT\SPURSPR\X64\DEBUG\INTERPOLATEWITHSINC.OBJ
C:\USERS\YULYAS\ONEDRIVE - TECHNION\SPURS\CLONE\SP_ROOT\SPURSPR\X64\DEBUG\SOURCE.OBJ
C:\USERS\YULYAS\ONEDRIVE - TECHNION\SPURS\CLONE\SP_ROOT\SPURSPR\X64\DEBUG\SPURSALG.OBJ
^C:\USERS\YULYAS\ONEDRIVE - TECHNION\SPURS\CLONE\SP_ROOT\SPURSPR\BSPLINEPHI.CPP|C:\USERS\YULYAS\ONEDRIVE - TECHNION\SPURS\CLONE\SP_ROOT\SPURSPR\RETURNPSI.CPP
C:\USERS\YULYAS\ONEDRIVE - TECHNION\SPURS\CLONE\SP_ROOT\SPURSPR\X64\DEBUG\VC140.PDB
C:\USERS\YULYAS\ONEDRIVE - TECHNION\SPURS\CLONE\SP_ROOT\SPURSPR\X64\DEBUG\VC140.IDB
C:\USERS\YULYAS\ONEDRIVE - TECHNION\SPURS\CLONE\SP_ROOT\SPURSPR\X64\DEBUG\BSPLINEPHI.OBJ
C:\USERS\YULYAS\ONEDRIVE - TECHNION\SPURS\CLONE\SP_ROOT\SPURSPR\X64\DEBUG\RETURNPSI.OBJ
