^C:\USERS\YULYAS\ONEDRIVE - TECHNION\SPURS\SP_ROOT\BUILD\LIB\RELEASE\LIBAMD.LIB|C:\USERS\YULYAS\ONEDRIVE - TECHNION\SPURS\SP_ROOT\BUILD\LIB\RELEASE\LIBCAMD.LIB|C:\USERS\YULYAS\ONEDRIVE - TECHNION\SPURS\SP_ROOT\BUILD\LIB\RELEASE\LIBCCOLAMD.LIB|C:\USERS\YULYAS\ONEDRIVE - TECHNION\SPURS\SP_ROOT\BUILD\LIB\RELEASE\LIBCHOLMOD.LIB|C:\USERS\YULYAS\ONEDRIVE - TECHNION\SPURS\SP_ROOT\BUILD\LIB\RELEASE\LIBCOLAMD.LIB|C:\USERS\YULYAS\ONEDRIVE - TECHNION\SPURS\SP_ROOT\BUILD\LIB\RELEASE\LIBUMFPACK.LIB|C:\USERS\YULYAS\ONEDRIVE - TECHNION\SPURS\SP_ROOT\BUILD\LIB\RELEASE\METIS.LIB|C:\USERS\YULYAS\ONEDRIVE - TECHNION\SPURS\SP_ROOT\BUILD\LIB\RELEASE\SUITESPARSECONFIG.LIB|C:\USERS\YULYAS\ONEDRIVE - TECHNION\SPURS\SP_ROOT\SPURSPR\X64\RELEASE\BSPLINEFAST.OBJ|C:\USERS\YULYAS\ONEDRIVE - TECHNION\SPURS\SP_ROOT\SPURSPR\X64\RELEASE\BSPLINEPHI.OBJ|C:\USERS\YULYAS\ONEDRIVE - TECHNION\SPURS\SP_ROOT\SPURSPR\X64\RELEASE\CONSTRUCTGRIDARMSPIRAL.OBJ|C:\USERS\YULYAS\ONEDRIVE - TECHNION\SPURS\SP_ROOT\SPURSPR\X64\RELEASE\CONSTRUCTGRIDCARTESIAN.OBJ|C:\USERS\YULYAS\ONEDRIVE - TECHNION\SPURS\SP_ROOT\SPURSPR\X64\RELEASE\CTAGCALCULATION.OBJ|C:\USERS\YULYAS\ONEDRIVE - TECHNION\SPURS\SP_ROOT\SPURSPR\X64\RELEASE\FACTORPSI.OBJ|C:\USERS\YULYAS\ONEDRIVE - TECHNION\SPURS\SP_ROOT\SPURSPR\X64\RELEASE\IFFTANDFILTERINIMAGESPACE.OBJ|C:\USERS\YULYAS\ONEDRIVE - TECHNION\SPURS\SP_ROOT\SPURSPR\X64\RELEASE\INTERPOLATEWITHSINC.OBJ|C:\USERS\YULYAS\ONEDRIVE - TECHNION\SPURS\SP_ROOT\SPURSPR\X64\RELEASE\RETURNFILTER.OBJ|C:\USERS\YULYAS\ONEDRIVE - TECHNION\SPURS\SP_ROOT\SPURSPR\X64\RELEASE\RETURNPSI.OBJ|C:\USERS\YULYAS\ONEDRIVE - TECHNION\SPURS\SP_ROOT\SPURSPR\X64\RELEASE\SOURCE.OBJ|C:\USERS\YULYAS\ONEDRIVE - TECHNION\SPURS\SP_ROOT\SPURSPR\X64\RELEASE\SPURSALG.OBJ
C:\USERS\YULYAS\ONEDRIVE - TECHNION\SPURS\SP_ROOT\BUILD\X64\RELEASE\SPURSPR.EXE
C:\USERS\YULYAS\ONEDRIVE - TECHNION\SPURS\SP_ROOT\BUILD\X64\RELEASE\SPURSPR.IPDB
C:\USERS\YULYAS\ONEDRIVE - TECHNION\SPURS\SP_ROOT\BUILD\X64\RELEASE\SPURSPR.IOBJ
C:\USERS\YULYAS\ONEDRIVE - TECHNION\SPURS\SP_ROOT\BUILD\X64\RELEASE\SPURSPR.PDB
